# 3ds Max Wavefront OBJ Exporter v0.97b - (c)2007 guruware
# File Created: 05.03.2016 20:31:31

#
# object Casa_A
#

v  36.444168 -91.579399 43.246952
v  109.453690 -91.579399 43.202206
v  109.453705 4.269735 43.202213
v  36.444176 4.269735 43.246967
v  36.437912 67.888725 43.246975
v  36.444172 -43.654831 43.246960
v  109.453690 -43.654831 43.202206
v  89.830795 -25.053778 43.246960
v  65.011826 -20.042233 43.246960
v  79.298782 -20.042233 43.246960
v  54.785194 -25.023844 43.246960
v  72.155304 4.269735 43.246967
v  101.449722 -43.322605 43.246960
v  101.449722 -91.579399 43.246952
v  43.581375 -91.579399 43.246952
v  43.581383 -43.570007 43.246960
v  109.593666 -91.579407 39.002308
v  109.313721 52.209320 0.861855
v  36.437908 67.888725 0.861855
v  6.435501 -20.042233 43.246960
v  16.967514 -25.053778 43.246960
v  28.586449 -43.322605 43.246960
v  28.586449 -91.579407 43.246952
v  109.453705 4.269739 22.122471
v  109.593674 -43.570007 39.002300
v  109.593681 -20.042233 18.244740
v  109.593681 -25.053778 12.123943
v  109.593681 -25.023844 32.491085
v  109.593681 -20.042233 26.547764
v  109.593666 -91.579407 5.371460
v  109.593674 -43.322605 5.371460
v  109.593674 -43.184021 0.804863
v  -36.444164 -91.579399 43.246952
v  -109.453690 -91.579399 43.202206
v  -109.453705 4.269735 43.202213
v  -36.444180 4.269735 43.246967
v  -36.437908 67.888725 43.246975
v  0.000000 91.579399 43.246983
v  -36.444172 -43.654831 43.246960
v  -109.453705 -43.654831 43.202206
v  -89.830795 -25.053778 43.246960
v  -65.011826 -20.042233 43.246960
v  -79.298782 -20.042233 43.246960
v  -54.785198 -25.023844 43.246960
v  -72.155304 4.269735 43.246967
v  -101.449738 -43.322605 43.246960
v  -101.449738 -91.579399 43.246952
v  -43.581371 -91.579399 43.246952
v  -43.581387 -43.570007 43.246960
v  -109.593666 -91.579407 39.002308
v  0.000719 97.408562 0.861855
v  -6.435501 -20.042233 43.246960
v  -16.967514 -25.053778 43.246960
v  -28.586449 -43.322605 43.246960
v  -28.586449 -91.579407 43.246952
v  -109.453705 4.269739 22.122471
v  -109.593674 -43.570007 39.002300
v  -109.593681 -20.042233 18.244740
v  -109.593681 -25.053778 12.123943
v  -109.593681 -25.023844 32.491085
v  -109.593681 -20.042233 26.547764
v  -109.593666 -91.579407 5.371460
v  -109.593674 -43.322605 5.371460
v  -109.593674 -43.184021 0.804863
v  109.313721 -91.579384 -43.246979
v  109.313721 4.269751 -43.246956
v  36.437897 4.269751 -43.246956
v  36.437912 -91.579384 -43.246979
v  109.453690 -91.579391 0.833344
v  36.437897 67.888733 -43.246952
v  0.000000 4.269751 -43.246956
v  0.000000 91.579407 -43.246952
v  109.313721 -43.184021 -43.246967
v  36.437904 -43.184021 -43.246967
v  109.453705 4.269739 0.833355
v  -109.313721 -91.579384 -43.246979
v  -109.313721 4.269751 -43.246956
v  -36.437897 4.269751 -43.246956
v  -36.437912 -91.579384 -43.246979
v  -109.453690 -91.579391 0.833344
v  -109.313721 52.209320 0.861855
v  -36.437897 67.888733 -43.246952
v  -36.437908 67.888725 0.861855
v  0.000000 -91.579384 -43.246979
v  -109.313721 -43.184021 -43.246967
v  -36.437904 -43.184021 -43.246967
v  0.000000 -43.184021 -43.246967
v  -109.453705 4.269739 0.833355
v  89.830795 -25.053776 39.051369
v  65.011826 -20.042231 39.051369
v  79.298782 -20.042231 39.051369
v  54.785194 -25.023842 39.051369
v  43.581375 -91.579399 39.051365
v  43.581383 -43.570007 39.051373
v  6.435501 -20.042231 39.051365
v  16.967514 -25.053776 39.051365
v  28.586449 -43.322605 39.051365
v  28.586449 -91.579407 39.051361
v  -89.830795 -25.053776 39.051369
v  -65.011826 -20.042231 39.051369
v  -79.298782 -20.042231 39.051369
v  -54.785198 -25.023842 39.051369
v  -101.195541 -43.446304 39.026833
v  -101.195541 -91.579407 39.026833
v  -43.581371 -91.579399 39.051361
v  -43.581387 -43.570007 39.051365
v  -6.435501 -20.042231 39.051365
v  -16.967514 -25.053776 39.051365
v  -28.586449 -43.322605 39.051365
v  -28.586449 -91.579407 39.051357
v  101.195534 -91.579407 39.026836
v  101.195541 -43.446304 39.026833
v  100.941353 -20.042233 18.244740
v  100.941353 -25.053778 12.123943
v  100.941353 -25.023842 32.491085
v  100.941353 -20.042231 26.547764
v  100.941345 -91.579407 5.371460
v  100.941353 -43.322605 5.371460
v  -100.941353 -20.042233 18.244740
v  -100.941353 -25.053778 12.123943
v  -100.941353 -25.023842 32.491085
v  -100.941353 -20.042231 26.547764
v  -100.941345 -91.579407 5.371460
v  -100.941353 -43.322605 5.371460
v  0.000719 97.408562 49.152496
v  42.319088 70.044716 49.152481
v  42.319088 70.044716 0.861854
v  42.319073 70.044724 -49.152466
v  0.000723 97.408562 -49.152466
v  -42.318356 70.043648 -49.152466
v  -42.318363 70.043633 0.861854
v  -42.318363 70.043633 49.152481
v  42.343422 64.176842 49.152481
v  42.343422 64.176842 0.861854
v  42.343407 64.176849 -49.152466
v  -42.343422 64.176842 0.861854
v  -42.343422 64.176842 49.152481
v  -42.343407 64.176849 -49.152466
v  72.159424 3.298839 49.202778
v  115.363327 3.320513 49.174644
v  115.219727 58.263157 0.800402
v  36.444679 10.127020 43.193600
v  -72.159424 3.298839 49.202778
v  -115.219727 3.358244 -49.269356
v  -115.219727 58.263153 0.800405
v  72.158920 -2.649680 49.152481
v  115.362823 -2.650201 49.099129
v  36.448299 3.298839 49.202778
v  36.447796 -2.649680 49.152481
v  115.219223 -2.647324 -49.161064
v  36.437897 -2.646803 -49.152466
v  36.438400 3.358766 -49.260757
v  115.219727 3.358244 -49.269356
v  -72.158920 -2.649680 49.152481
v  -36.447800 -2.649680 49.152481
v  -36.448303 3.298839 49.202778
v  -115.363327 3.320513 49.174644
v  -36.437897 -2.646803 -49.152466
v  -115.219223 -2.647324 -49.161064
v  -36.438400 3.358766 -49.260757
v  0.000000 91.579399 49.152496
v  0.000000 91.579407 -49.152466
v  115.219223 52.208797 0.853255
v  -115.219223 52.208797 0.853255
v  -115.362823 -2.650201 49.099129
v  -0.000002 4.269735 43.246967
v  36.438412 58.263680 0.809003
v  -36.438412 58.263676 0.809005
v  0.000000 11.729897 -43.246956
v  36.438400 10.075201 -43.135799
v  -36.438400 10.075201 -43.135799
v  0.000000 10.127020 43.193600
v  -36.444683 10.127020 43.193600
# 173 vertices

vn 0.000000 0.000000 1.000000
vn 0.000105 0.660836 0.750530
vn 0.000157 0.660818 0.750546
vn 0.000026 0.999956 0.009362
vn 0.001820 0.000463 0.999998
vn 0.001606 0.000451 0.999999
vn 0.000393 0.000236 1.000000
vn 0.999993 0.003002 -0.002364
vn 0.999994 0.002921 -0.001609
vn 0.999991 0.004339 -0.000000
vn 0.004770 0.000834 0.999988
vn 0.005680 0.002146 0.999982
vn 0.005591 0.000000 0.999984
vn 0.005590 0.000000 0.999984
vn 0.542991 0.839739 -0.000000
vn -0.000005 1.000000 -0.000000
vn 0.999991 0.003711 0.002212
vn 0.999419 0.006528 0.033443
vn 0.999542 0.003857 0.030028
vn 0.999445 0.000000 0.033310
vn 0.999987 0.004848 -0.001270
vn 0.999988 0.003019 -0.003867
vn 0.999987 0.004845 0.001332
vn 0.999940 0.001807 0.010766
vn 0.999869 -0.001534 -0.016086
vn 0.999995 -0.000049 -0.003246
vn 0.999999 -0.001248 -0.000865
vn 0.999525 0.000000 -0.030830
vn -0.000105 0.660836 0.750530
vn -0.000065 0.660842 0.750525
vn -0.000080 0.660847 0.750520
vn -0.000110 0.660839 0.750528
vn -0.001820 0.000463 0.999998
vn -0.000393 0.000236 1.000000
vn -0.001606 0.000451 0.999999
vn -0.999993 0.003002 -0.002364
vn -0.999991 0.004339 -0.000000
vn -0.999994 0.002921 -0.001609
vn -0.004770 0.000834 0.999988
vn -0.005590 0.000000 0.999984
vn -0.005591 0.000000 0.999984
vn -0.005680 0.002146 0.999982
vn -0.542999 0.839733 -0.000000
vn -0.999991 0.003711 0.002211
vn -0.999445 0.000000 0.033310
vn -0.999542 0.003857 0.030025
vn -0.999419 0.006527 0.033439
vn -0.999987 0.004848 -0.001270
vn -0.999988 0.003019 -0.003867
vn -0.999987 0.004845 0.001332
vn -0.999940 0.001807 0.010765
vn -0.999999 -0.001248 -0.000865
vn -0.999995 -0.000049 -0.003246
vn -0.999869 -0.001534 -0.016086
vn -0.999525 0.000000 -0.030830
vn 0.999988 -0.001534 -0.004670
vn 0.999984 0.000773 -0.005597
vn 0.000000 0.000000 -1.000000
vn 0.000000 0.006382 -0.999980
vn -0.000076 0.673823 -0.738893
vn 0.000003 0.999962 0.008729
vn 0.000000 0.000963 -1.000000
vn 0.000000 -0.000637 -1.000000
vn 0.001636 0.007675 -0.999969
vn 0.999994 0.001008 -0.003176
vn -0.999988 -0.001534 -0.004670
vn -0.999984 0.000773 -0.005597
vn -0.001636 0.007675 -0.999969
vn -0.999994 0.001008 -0.003176
vn 0.000065 0.660842 0.750525
vn -0.000157 0.660818 0.750546
vn 1.000000 0.000000 -0.000000
vn -0.429675 -0.902984 -0.000000
vn 0.437927 -0.899010 -0.000000
vn 0.000000 -1.000000 -0.000000
vn -0.998191 0.000000 0.060123
vn -0.846785 -0.530887 0.033379
vn 0.855939 -0.517076 -0.000000
vn -1.000000 0.000000 -0.000000
vn -0.843801 -0.536656 -0.000000
vn 0.429675 -0.902984 -0.000000
vn -0.437927 -0.899010 -0.000000
vn 0.998191 0.000000 0.060125
vn 0.846785 -0.530887 0.033380
vn -0.855939 -0.517076 -0.000000
vn 0.843801 -0.536656 -0.000000
vn -0.002921 0.000000 -0.999996
vn 0.000000 -0.773733 0.633512
vn 0.000000 -0.766389 -0.642377
vn 0.000000 -0.346693 0.937978
vn -0.003771 -0.332823 -0.942982
vn 0.002921 0.000000 -0.999996
vn 0.000000 -0.346694 0.937979
vn 0.003771 -0.332823 -0.942982
vn 0.999991 0.004147 -0.000000
vn -0.999991 0.004271 -0.000000
vn -0.532156 -0.846646 -0.000000
vn 0.532156 -0.846646 -0.000000
vn 0.000946 -0.010555 0.999944
vn 0.999995 -0.000078 -0.003061
vn 1.000000 -0.000082 0.000090
vn -0.000109 -0.018029 -0.999837
vn 0.000000 -0.008455 0.999964
vn -0.000946 -0.010555 0.999944
vn 0.000109 -0.018029 -0.999837
vn -1.000000 -0.000082 0.000090
vn -0.999995 -0.000078 -0.003061
vn -0.000931 -0.649122 -0.760684
vn 0.000000 0.660651 0.750693
vn -1.000000 0.000085 0.000706
vn 0.000000 -0.649180 -0.760635
vn 0.000041 -0.649584 0.760290
vn -1.000000 0.000085 -0.000097
vn 0.000931 -0.649122 -0.760684
vn 1.000000 0.000085 0.000706
vn -0.000041 -0.649584 0.760290
vn 0.000076 0.673823 -0.738893
vn 1.000000 0.000085 -0.000097
vn -0.544111 -0.838971 0.008389
vn 0.544111 -0.838971 0.008389
vn -0.544111 -0.838971 -0.008389
vn 0.544111 -0.838971 -0.008389
vn -0.013356 -0.661097 -0.750181
vn -0.025673 -0.675088 0.737291
vn 0.013356 -0.661097 -0.750181
vn 0.025673 -0.675088 0.737291
vn 0.000000 0.009111 0.999959
vn -1.000000 0.000015 -0.000008
vn -1.000000 0.000009 -0.000010
vn -1.000000 0.000033 -0.000004
vn -1.000000 0.000052 -0.000000
vn 0.000794 -0.000515 -1.000000
vn 1.000000 0.000015 -0.000008
vn -0.000794 -0.000515 -1.000000
vn -0.000314 -0.000726 1.000000
vn -0.000426 -0.000655 1.000000
vn -0.000153 -0.000828 1.000000
vn 0.000000 -0.000924 1.000000
vn 0.000153 -0.000828 1.000000
vn 0.000426 -0.000655 1.000000
vn 0.000314 -0.000726 1.000000
vn 1.000000 0.000081 -0.000007
vn 1.000000 0.000052 -0.000000
vn 1.000000 0.000108 -0.000013
vn 1.000000 0.000117 -0.000015
vn -1.000000 0.000108 -0.000013
vn -1.000000 0.000081 -0.000007
vn -1.000000 0.000117 -0.000015
# 148 vertex normals

vt 0.447416 0.388978 0.000000
vt 0.438151 0.379438 0.000000
vt 0.502416 0.316800 0.000000
vt 0.511844 0.325889 0.000000
vt 0.920766 0.631040 0.000000
vt 0.844636 0.627849 0.000000
vt 0.847819 0.501874 0.000000
vt 0.483160 0.480434 0.000000
vt 0.469582 0.554155 0.000000
vt 0.419456 0.491187 0.000000
vt 0.462155 0.471239 0.000000
vt 0.524127 0.612683 0.000000
vt 0.456226 0.671665 0.000000
vt 0.497214 0.582434 0.000000
vt 0.436995 0.429287 0.000000
vt 0.443610 0.450704 0.000000
vt 0.373944 0.442233 0.000000
vt 0.534625 0.486233 0.000000
vt 0.524335 0.475429 0.000000
vt 0.589665 0.412803 0.000000
vt 0.599266 0.423839 0.000000
vt 0.776456 0.241453 0.000000
vt 0.774817 0.155936 0.000000
vt 0.863562 0.155831 0.000000
vt 0.863653 0.240220 0.000000
vt 0.386845 0.377996 0.000000
vt 0.324989 0.394735 0.000000
vt 0.365160 0.370631 0.000000
vt 0.347090 0.353409 0.000000
vt 0.427553 0.369320 0.000000
vt 0.492624 0.306188 0.000000
vt 0.539796 0.492072 0.000000
vt 0.604520 0.429038 0.000000
vt 0.535562 0.557617 0.000000
vt 0.552456 0.561439 0.000000
vt 0.523222 0.544193 0.000000
vt 0.520602 0.527044 0.000000
vt 0.664701 0.500117 0.000000
vt 0.593617 0.556460 0.000000
vt 0.588823 0.549587 0.000000
vt 0.660338 0.493606 0.000000
vt 0.393979 0.213572 0.000000
vt 0.334645 0.280894 0.000000
vt 0.324638 0.272113 0.000000
vt 0.384429 0.204612 0.000000
vt 0.410827 0.097248 0.000000
vt 0.424852 0.033893 0.000000
vt 0.537981 0.030669 0.000000
vt 0.540895 0.168575 0.000000
vt 0.231189 0.241093 0.000000
vt 0.241602 0.261565 0.000000
vt 0.224035 0.305299 0.000000
vt 0.160910 0.258106 0.000000
vt 0.101641 0.204627 0.000000
vt 0.133340 0.229873 0.000000
vt 0.043230 0.268959 0.000000
vt 0.284886 0.284531 0.000000
vt 0.275174 0.348166 0.000000
vt 0.263138 0.278999 0.000000
vt 0.222263 0.190016 0.000000
vt 0.280630 0.121725 0.000000
vt 0.292225 0.130644 0.000000
vt 0.233685 0.199661 0.000000
vt 0.952307 0.155745 0.000000
vt 0.950854 0.241264 0.000000
vt 0.338676 0.332092 0.000000
vt 0.405068 0.222820 0.000000
vt 0.345290 0.290985 0.000000
vt 0.216094 0.185194 0.000000
vt 0.275121 0.116794 0.000000
vt 0.156974 0.194325 0.000000
vt 0.153488 0.177324 0.000000
vt 0.170136 0.206989 0.000000
vt 0.187246 0.210064 0.000000
vt 0.166020 0.141155 0.000000
vt 0.159227 0.136239 0.000000
vt 0.216336 0.065724 0.000000
vt 0.222767 0.070230 0.000000
vt 0.715920 0.563943 0.000000
vt 0.645550 0.620537 0.000000
vt 0.776272 0.067375 0.000000
vt 0.863467 0.068401 0.000000
vt 0.731257 0.726417 0.000000
vt 0.662376 0.782152 0.000000
vt 0.577001 0.676182 0.000000
vt 0.846290 0.374197 0.000000
vt 0.984977 0.387988 0.000000
vt 0.985751 0.503064 0.000000
vt 0.705221 0.835065 0.000000
vt 0.694402 0.843834 0.000000
vt 0.653935 0.789025 0.000000
vt 0.774092 0.779299 0.000000
vt 0.801490 0.669573 0.000000
vt 0.844321 0.722408 0.000000
vt 0.152911 0.013766 0.000000
vt 0.095972 0.083485 0.000000
vt 0.950662 0.067187 0.000000
vt 0.748081 0.887945 0.000000
vt 0.816937 0.832168 0.000000
vt 0.902644 0.937901 0.000000
vt 0.833777 0.993701 0.000000
vt 0.739675 0.894745 0.000000
vt 0.039263 0.150407 0.000000
vt 0.887152 0.775263 0.000000
vt 0.972863 0.880978 0.000000
vt 0.983941 0.616227 0.000000
vt 0.414969 0.173331 0.000000
vt 0.517512 0.331162 0.000000
vt 0.453930 0.392572 0.000000
vt 0.466527 0.465160 0.000000
vt 0.484136 0.473120 0.000000
vt 0.444379 0.429148 0.000000
vt 0.450117 0.447012 0.000000
vt 0.521394 0.468674 0.000000
vt 0.584643 0.406834 0.000000
vt 0.369040 0.364236 0.000000
vt 0.387261 0.370614 0.000000
vt 0.353286 0.349218 0.000000
vt 0.424190 0.362702 0.000000
vt 0.487498 0.300387 0.000000
vt 0.320719 0.265786 0.000000
vt 0.378879 0.199214 0.000000
vt 0.238447 0.239688 0.000000
vt 0.247437 0.256852 0.000000
vt 0.266484 0.272295 0.000000
vt 0.284647 0.277140 0.000000
vt 0.298485 0.135297 0.000000
vt 0.240608 0.202199 0.000000
vt 0.346034 0.331312 0.000000
vt 0.411118 0.227649 0.000000
vt 0.352068 0.294016 0.000000
vt 0.615553 0.439867 0.000000
vt 0.551937 0.501463 0.000000
vt 0.543141 0.544526 0.000000
vt 0.551849 0.546236 0.000000
vt 0.535928 0.528340 0.000000
vt 0.536832 0.537412 0.000000
vt 0.581731 0.535548 0.000000
vt 0.651022 0.480775 0.000000
vt 0.205986 0.173637 0.000000
vt 0.263648 0.106433 0.000000
vt 0.168702 0.178221 0.000000
vt 0.170246 0.187019 0.000000
vt 0.177257 0.193533 0.000000
vt 0.186356 0.194695 0.000000
vt 0.235486 0.079711 0.000000
vt 0.179961 0.148463 0.000000
vt 0.863663 0.248620 0.000000
vt 0.773033 0.250687 0.000000
vt 0.765971 0.241217 0.000000
vt 0.764504 0.155950 0.000000
vt 0.765790 0.067639 0.000000
vt 0.863460 0.060001 0.000000
vt 0.772826 0.058149 0.000000
vt 0.954089 0.057955 0.000000
vt 0.961143 0.067428 0.000000
vt 0.962618 0.155736 0.000000
vt 0.961337 0.241005 0.000000
vt 0.954297 0.250489 0.000000
vt 0.753452 0.230893 0.000000
vt 0.752206 0.155966 0.000000
vt 0.753299 0.077996 0.000000
vt 0.973833 0.230654 0.000000
vt 0.974916 0.155725 0.000000
vt 0.973656 0.077757 0.000000
vt 0.920398 0.641432 0.000000
vt 0.844555 0.638454 0.000000
vt 0.840834 0.502033 0.000000
vt 0.837093 0.632599 0.000000
vt 0.838546 0.369365 0.000000
vt 0.984618 0.371959 0.000000
vt 0.846090 0.363625 0.000000
vt 0.984412 0.361356 0.000000
vt 0.983476 0.632270 0.000000
vt 0.983129 0.642794 0.000000
vt 0.404366 0.173545 0.000000
vt 0.400443 0.097744 0.000000
vt 0.408817 0.034557 0.000000
vt 0.398299 0.035036 0.000000
vt 0.668581 0.168511 0.000000
vt 0.669090 0.030165 0.000000
vt 0.679693 0.030237 0.000000
vt 0.679154 0.168579 0.000000
vt 0.540823 0.175562 0.000000
vt 0.673508 0.176193 0.000000
vt 0.410315 0.180933 0.000000
vt 0.854370 0.654856 0.000000
vt 0.919923 0.657385 0.000000
vt 0.990450 0.624236 0.000000
vt 0.990247 0.640208 0.000000
vt 0.982719 0.658790 0.000000
vt 0.856186 0.347466 0.000000
vt 0.984141 0.345370 0.000000
vt 0.991524 0.380120 0.000000
vt 0.991682 0.364150 0.000000
vt 0.387843 0.163934 0.000000
vt 0.384498 0.098419 0.000000
vt 0.382308 0.035645 0.000000
vt 0.416763 0.027485 0.000000
vt 0.400794 0.027886 0.000000
vt 0.695186 0.158281 0.000000
vt 0.695681 0.030310 0.000000
vt 0.653058 0.030006 0.000000
vt 0.660843 0.023361 0.000000
vt 0.676810 0.023004 0.000000
vt 0.786610 0.260847 0.000000
vt 0.863674 0.259034 0.000000
vt 0.940741 0.260678 0.000000
vt 0.786380 0.047957 0.000000
vt 0.863448 0.049588 0.000000
vt 0.940514 0.047792 0.000000
vt 0.827215 0.614857 0.000000
vt 0.830470 0.501978 0.000000
vt 0.828422 0.386991 0.000000
vt 0.428178 0.190589 0.000000
vt 0.541008 0.185925 0.000000
vt 0.656011 0.186537 0.000000
vt 0.317304 0.402808 0.000000
vt 0.267851 0.356002 0.000000
vt 0.366450 0.449935 0.000000
vt 0.070091 0.354284 0.000000
vt 0.130270 0.264634 0.000000
vt 0.148475 0.385062 0.000000
vt 0.138585 0.400072 0.000000
vt 0.578619 0.937819 0.000000
vt 0.570089 0.857092 0.000000
vt 0.368669 0.661921 0.000000
vt 0.325945 0.591501 0.000000
vt 0.341353 0.582242 0.000000
vt 0.460875 0.605738 0.000000
vt 0.655853 0.962777 0.000000
vt 0.292009 0.527947 0.000000
vt 0.212291 0.513012 0.000000
vt 0.193518 0.434110 0.000000
# 234 texture coords

g Casa_A
s 1
f -158/-234/-148 -168/-233/-148 -173/-232/-148 -159/-231/-148 
s 32
f -35/-230/-147 -34/-229/-146 -33/-228/-145 
s 1
f -166/-227/-144 -171/-226/-143 -162/-225/-142 -164/-224/-148 
s 2
f -99/-223/-141 -156/-222/-140 -150/-221/-139 
s 1
f -163/-220/-148 -165/-219/-148 -162/-225/-142 -170/-218/-148 
f -162/-225/-142 -165/-219/-148 -164/-224/-148 
f -167/-217/-138 -161/-216/-137 -160/-215/-136 -172/-214/-135 
f -166/-227/-144 -161/-216/-137 -167/-217/-138 -171/-226/-143 
f -163/-220/-148 -170/-218/-148 -168/-233/-148 -158/-234/-148 
s 16
f -48/-213/-134 -47/-212/-134 -123/-211/-133 -49/-210/-133 
s 2
f -156/-222/-140 -171/-226/-132 -150/-221/-139 
s 1
f -153/-209/-148 -170/-218/-148 -8/-208/-148 -154/-207/-148 
f -154/-207/-148 -8/-208/-148 -122/-206/-148 
f -168/-233/-148 -152/-205/-148 -151/-204/-148 -173/-232/-148 
f -153/-209/-148 -152/-205/-148 -168/-233/-148 -170/-218/-148 
s 2
f -149/-203/-131 -167/-217/-130 -172/-214/-129 -157/-202/-129 
f -99/-223/-141 -150/-221/-139 -148/-201/-128 -147/-200/-127 
f -145/-199/-126 -150/-221/-139 -171/-226/-132 -146/-198/-125 
f -148/-201/-128 -150/-221/-139 -145/-199/-126 
f -105/-197/-124 -142/-196/-123 -143/-195/-122 -144/-194/-121 
f -147/-200/-127 -143/-195/-122 -142/-196/-123 -99/-223/-141 
f -146/-198/-125 -171/-226/-132 -167/-217/-130 -149/-203/-131 
s 1
f -141/-193/-148 -135/-192/-148 -125/-191/-148 -126/-190/-148 
s 32
f -31/-189/-120 -1/-188/-119 -6/-187/-118 -29/-186/-117 
s 1
f -133/-185/-116 -131/-184/-148 -129/-183/-115 -139/-182/-114 
s 2
f -86/-181/-113 -118/-180/-112 -93/-179/-111 
s 1
f -130/-178/-148 -138/-177/-148 -129/-183/-115 -132/-176/-148 
f -129/-183/-115 -131/-184/-148 -132/-176/-148 
f -134/-175/-110 -140/-174/-109 -127/-173/-108 -128/-172/-107 
f -134/-175/-110 -128/-172/-107 -133/-185/-116 -139/-182/-114 
f -135/-192/-148 -138/-177/-148 -130/-178/-148 -125/-191/-148 
s 32
f -123/-211/-133 -43/-171/-106 -42/-170/-106 -49/-210/-133 
s 2
f -93/-179/-111 -118/-180/-112 -139/-182/-105 
s 1
f -121/-169/-148 -122/-206/-148 -8/-208/-148 -138/-177/-148 
f -135/-192/-148 -141/-193/-148 -119/-168/-148 -120/-167/-148 
f -135/-192/-148 -120/-167/-148 -121/-169/-148 -138/-177/-148 
s 2
f -140/-174/-104 -134/-175/-103 -117/-166/-102 -124/-165/-104 
f -116/-164/-101 -118/-180/-112 -86/-181/-113 -115/-163/-100 
f -139/-182/-105 -118/-180/-112 -113/-162/-99 -114/-161/-98 
f -111/-160/-97 -110/-159/-96 -94/-158/-95 -112/-157/-94 
f -110/-159/-96 -111/-160/-97 -115/-163/-100 -86/-181/-113 
f -134/-175/-103 -139/-182/-105 -114/-161/-98 -117/-166/-102 
f -113/-162/-99 -118/-180/-112 -116/-164/-101 
f -142/-196/-123 -105/-197/-124 -109/-156/-93 -101/-155/-92 
s 16
f -123/-211/-133 -47/-212/-134 -46/-154/-134 -45/-153/-133 
s 1
f -101/-155/-91 -100/-152/-91 -107/-151/-90 -108/-150/-91 
s 16
f -33/-228/-145 -21/-149/-89 -4/-148/-89 -7/-147/-88 
s 1
f -103/-146/-87 -5/-145/-86 -4/-144/-85 -107/-151/-90 
f -100/-152/-91 -87/-143/-91 -103/-146/-87 -107/-151/-90 
s 2
f -108/-150/-84 -156/-222/-140 -99/-223/-141 
s 1
f -106/-142/-91 -100/-152/-91 -101/-155/-91 -109/-156/-91 
f -90/-141/-91 -87/-143/-91 -100/-152/-91 -106/-142/-91 
s 2
f -101/-155/-92 -108/-150/-84 -99/-223/-141 -142/-196/-123 
f -98/-140/-83 -94/-158/-95 -110/-159/-96 -89/-139/-82 
s 32
f -44/-138/-106 -43/-171/-106 -123/-211/-133 -45/-153/-133 
s 1
f -96/-137/-90 -88/-136/-91 -89/-135/-91 -97/-134/-91 
f -103/-146/-87 -96/-137/-90 -3/-133/-81 -5/-145/-86 
f -103/-146/-87 -87/-143/-91 -88/-136/-91 -96/-137/-90 
s 2
f -97/-132/-80 -86/-181/-113 -93/-179/-111 
s 1
f -89/-135/-91 -88/-136/-91 -95/-131/-91 -98/-130/-91 
f -88/-136/-91 -87/-143/-91 -90/-141/-91 -95/-131/-91 
s 2
f -86/-181/-113 -97/-132/-80 -89/-139/-82 -110/-159/-96 
s 32
f -7/-147/-88 -32/-129/-79 -35/-230/-147 -33/-228/-145 
f -17/-128/-78 -31/-189/-120 -29/-186/-117 
s 2
f -81/-127/-77 -80/-126/-77 -158/-234/-77 -159/-231/-77 
f -83/-125/-76 -85/-124/-76 -166/-227/-76 -164/-224/-76 
f -82/-123/-75 -84/-122/-75 -165/-219/-75 -163/-220/-75 
f -84/-122/-74 -83/-125/-74 -164/-224/-74 -165/-219/-74 
f -62/-121/-73 -63/-120/-73 -160/-215/-73 -161/-216/-73 
f -85/-124/-72 -62/-121/-72 -161/-216/-72 -166/-227/-72 
f -80/-126/-71 -82/-123/-71 -163/-220/-71 -158/-234/-71 
f -79/-119/-76 -78/-118/-76 -153/-209/-76 -154/-207/-76 
f -67/-117/-74 -79/-119/-74 -154/-207/-74 -122/-206/-74 
f -77/-116/-70 -76/-115/-70 -151/-204/-70 -152/-205/-70 
f -78/-118/-69 -77/-116/-69 -152/-205/-69 -153/-209/-69 
f -68/-114/-70 -69/-113/-70 -126/-190/-70 -125/-191/-70 
f -75/-112/-68 -73/-111/-68 -131/-184/-68 -133/-185/-68 
f -74/-110/-67 -72/-109/-67 -130/-178/-67 -132/-176/-67 
f -73/-111/-74 -74/-110/-74 -132/-176/-74 -131/-184/-74 
f -70/-108/-66 -71/-107/-66 -128/-172/-66 -127/-173/-66 
f -71/-107/-65 -75/-112/-65 -133/-185/-65 -128/-172/-65 
f -72/-109/-64 -68/-114/-64 -125/-191/-64 -130/-178/-64 
f -66/-106/-68 -67/-117/-68 -122/-206/-68 -121/-169/-68 
f -64/-105/-77 -65/-104/-77 -120/-167/-77 -119/-168/-77 
f -65/-104/-63 -66/-106/-63 -121/-169/-63 -120/-167/-63 
s 4
f -63/-103/-62 -62/-102/-62 -149/-203/-62 -157/-202/-62 
f -61/-101/-61 -60/-100/-61 -147/-200/-61 -148/-201/-61 
f -59/-99/-60 -58/-98/-60 -145/-199/-60 -146/-198/-60 
f -58/-98/-74 -61/-101/-74 -148/-201/-74 -145/-199/-74 
f -56/-97/-148 -57/-96/-148 -144/-194/-148 -143/-195/-148 
f -60/-100/-59 -56/-97/-59 -143/-195/-59 -147/-200/-59 
f -146/-198/-58 -149/-203/-58 -62/-102/-58 -59/-99/-58 
f -71/-95/-57 -70/-94/-57 -124/-165/-57 -117/-166/-57 
f -54/-93/-61 -55/-92/-61 -116/-164/-61 -115/-163/-61 
f -52/-91/-60 -53/-90/-60 -114/-161/-60 -113/-162/-60 
f -51/-89/-148 -50/-88/-148 -111/-160/-148 -112/-157/-148 
f -50/-88/-56 -54/-93/-56 -115/-163/-56 -111/-160/-56 
f -114/-161/-55 -53/-90/-55 -71/-95/-55 -117/-166/-55 
f -55/-92/-74 -52/-91/-74 -113/-162/-74 -116/-164/-74 
s off
f -13/-87/-148 -41/-86/-148 -48/-213/-148 -49/-210/-148 
f -47/-212/-54 -48/-213/-54 -41/-85/-54 -40/-84/-54 
f -46/-154/-54 -47/-212/-54 -40/-84/-54 -39/-83/-54 
f -12/-82/-91 -45/-153/-91 -46/-154/-91 -39/-81/-91 
f -12/-82/-91 -36/-80/-91 -44/-138/-91 -45/-153/-91 
f -43/-171/-53 -44/-138/-53 -36/-79/-53 -38/-78/-53 
f -42/-170/-53 -43/-171/-53 -38/-78/-53 -37/-77/-53 
f -13/-87/-148 -49/-210/-148 -42/-170/-148 -37/-76/-148 
f -169/-75/-52 -155/-74/-52 -40/-84/-52 -41/-85/-52 
f -104/-73/-52 -39/-83/-52 -40/-84/-52 -155/-74/-52 
f -137/-72/-51 -37/-77/-51 -38/-78/-51 -91/-71/-51 
f -92/-70/-51 -91/-71/-51 -38/-78/-51 -36/-79/-51 
s 2
f -34/-229/-50 -35/-230/-50 -28/-69/-50 -27/-68/-50 
s 4
f -11/-67/-49 -33/-228/-49 -34/-229/-49 -27/-66/-49 
f -11/-67/-48 -24/-65/-48 -21/-149/-48 -33/-228/-48 
s 2
f -22/-64/-47 -21/-149/-47 -24/-63/-47 -23/-62/-47 
f -35/-230/-46 -26/-61/-46 -25/-60/-46 -28/-69/-46 
f -31/-189/-45 -17/-128/-45 -9/-59/-45 -20/-58/-45 
f -18/-57/-46 -31/-189/-46 -20/-58/-46 -19/-56/-46 
f -30/-55/-44 -14/-54/-44 -16/-53/-44 -15/-52/-44 
s 4
f -10/-51/-43 -29/-186/-43 -30/-55/-43 -15/-50/-43 
f -17/-128/-42 -29/-186/-42 -10/-51/-42 -9/-49/-42 
s 32
f -171/-48/-41 -27/-68/-41 -28/-69/-41 -162/-47/-41 
f -35/-230/-40 -32/-129/-40 -26/-61/-40 
s 4
f -170/-46/-39 -25/-45/-39 -26/-61/-39 -32/-129/-39 
s 32
f -28/-69/-38 -25/-60/-38 -170/-44/-38 -162/-47/-38 
f -108/-43/-37 -107/-42/-37 -23/-62/-37 -24/-63/-37 
s 4
f -107/-41/-36 -4/-148/-36 -22/-64/-36 -23/-40/-36 
s 16
f -4/-148/-89 -21/-149/-89 -22/-64/-89 
s 32
f -139/-39/-35 -129/-38/-35 -20/-58/-35 -9/-59/-35 
f -19/-56/-38 -20/-58/-38 -129/-38/-38 -138/-37/-38 
s 4
f -138/-36/-34 -1/-188/-34 -18/-57/-34 -19/-35/-34 
s 32
f -1/-188/-40 -31/-189/-40 -18/-57/-40 
f -97/-34/-33 -15/-52/-33 -16/-53/-33 -96/-33/-33 
s 16
f -30/-55/-32 -3/-32/-32 -14/-54/-32 
s 4
f -96/-31/-31 -16/-30/-31 -14/-54/-31 -3/-32/-31 
s off
f -169/-29/-30 -41/-86/-30 -13/-87/-30 -136/-28/-30 
f -137/-27/-29 -136/-28/-29 -13/-87/-29 -37/-76/-29 
f -104/-26/-28 -102/-25/-28 -12/-82/-28 -39/-81/-28 
f -92/-24/-27 -36/-80/-27 -12/-82/-27 -102/-25/-27 
s 32
f -171/-23/-26 -156/-22/-26 -11/-67/-26 -27/-66/-26 
f -108/-21/-25 -24/-65/-25 -11/-67/-25 -156/-22/-25 
f -139/-20/-24 -9/-49/-24 -10/-51/-24 -93/-19/-24 
f -97/-18/-23 -93/-19/-23 -10/-51/-23 -15/-50/-23 
s 1
f -2/-17/-22 -1/-16/-22 -138/-177/-22 -8/-208/-22 
f -2/-17/-22 -8/-208/-22 -170/-218/-22 -32/-15/-22 
s 2
f -92/-14/-21 -3/-13/-20 -6/-12/-19 -91/-11/-18 
s 1
f -5/-145/-86 -102/-10/-91 -104/-9/-17 -4/-144/-85 
s 2
f -104/-8/-16 -155/-7/-16 -7/-6/-16 -4/-5/-16 
s 1
f -92/-4/-15 -102/-10/-91 -5/-145/-86 -3/-133/-81 
f -169/-3/-14 -136/-2/-13 -2/-17/-12 -32/-15/-11 
f -2/-17/-10 -136/-2/-9 -137/-1/-8 -1/-16/-11 
s 2
f -7/-6/-7 -155/-7/-6 -169/-3/-5 -32/-15/-4 
f -137/-1/-3 -91/-11/-18 -6/-12/-2 -1/-16/-1 
s 16
f -3/-32/-32 -30/-55/-32 -29/-186/-32 -6/-187/-32 
# 137 polygons - 17 triangles

#
# object Pared_Casa
#

v  0.000000 52.209320 0.861855
v  109.453690 -91.579391 0.833344
v  109.313721 52.209320 0.861855
v  36.437908 -91.579384 0.861828
v  36.437908 52.209320 0.861855
v  36.437908 67.888725 0.861855
v  -109.453690 -91.579391 0.833344
v  -109.313721 52.209320 0.861855
v  -36.437908 -91.579384 0.861828
v  -36.437908 52.209320 0.861855
v  -36.437908 67.888725 0.861855
v  0.000000 91.579399 0.861855
v  0.000000 -91.579384 0.861828
# 13 vertices

vn 0.000117 -0.000059 1.000000
vn 0.000000 -0.000000 1.000000
vn 0.000274 -0.000139 1.000000
vn 0.000390 -0.000198 1.000000
vn -0.000117 -0.000139 1.000000
vn 0.000000 -0.000198 1.000000
vn -0.000274 -0.000059 1.000000
vn -0.000390 -0.000000 1.000000
vn 0.000000 0.000000 1.000000
# 9 vertex normals

vt 0.019720 0.706664 0.000000
vt 0.160076 0.706664 0.000000
vt 0.160076 0.983595 0.000000
vt 0.019451 0.983595 0.000000
vt 0.300431 0.706664 0.000000
vt 0.440787 0.706664 0.000000
vt 0.441057 0.983595 0.000000
vt 0.300431 0.983595 0.000000
vt 0.300431 0.676466 0.000000
vt 0.230254 0.706664 0.000000
vt 0.230254 0.630839 0.000000
vt 0.230254 0.983595 0.000000
vt 0.160076 0.676466 0.000000
# 13 texture coords

g Pared_Casa
s 1
f -11/-13/-9 -9/-12/-8 -10/-11/-7 -12/-10/-6 
s 2
f -4/-9/-5 -6/-8/-4 -7/-7/-3 -5/-6/-2 
s 4
f -3/-5/-1 -4/-9/-1 -13/-4/-1 -2/-3/-1 
s 16
f -4/-9/-8 -5/-6/-8 -1/-2/-8 -13/-4/-8 
s 4
f -13/-4/-1 -9/-12/-1 -8/-1/-1 -2/-3/-1 
s 16
f -1/-2/-8 -10/-11/-8 -9/-12/-8 -13/-4/-8 
# 6 polygons

