# 3ds Max Wavefront OBJ Exporter v0.97b - (c)2007 guruware
# File Created: 24.02.2016 17:23:48

#
# object Entrada_Muralla
#

v  -911.538574 -474.130249 -53.674870
v  -759.615723 474.130249 -53.674824
v  -911.538574 474.130249 -53.674870
v  -911.538574 474.130249 53.674515
v  -455.769043 394.130249 -53.674728
v  -759.615723 394.130249 -53.674824
v  -303.846191 474.130249 -53.674679
v  -455.769043 474.130249 -53.674728
v  0.000000 394.130249 -53.674583
v  -303.846191 394.130249 -53.674679
v  0.000000 394.130249 53.674553
v  -911.538574 394.130249 53.674515
v  -911.538574 394.130249 -53.674870
v  151.922852 474.130249 53.674515
v  455.769531 394.130249 53.674656
v  455.769531 474.130249 53.674656
v  911.538574 394.130249 53.674870
v  -759.615723 -474.130249 53.674538
v  -455.769043 -474.130249 53.674587
v  455.769531 -474.130249 53.674656
v  607.692383 -474.130249 53.674728
v  911.538574 -474.130249 53.674870
v  -382.289551 -474.130249 53.674599
v  -381.973633 -348.709259 53.674599
v  -365.489746 -253.611176 53.674603
v  -335.314941 -150.399536 53.674610
v  -272.312988 -57.402924 53.674603
v  -161.193848 9.276001 53.674580
v  0.000000 35.553741 53.674553
v  151.922852 9.275848 53.674515
v  272.312988 -57.402893 53.674572
v  335.314941 -150.399506 53.674599
v  365.489746 -253.611145 53.674614
v  381.973633 -348.709290 53.674622
v  382.289551 -474.130249 53.674625
v  -911.538574 -474.130249 53.674515
v  -759.615723 474.130249 53.674538
v  -759.615723 394.130249 53.674538
v  -455.769043 394.130249 53.674587
v  -455.769043 474.130249 53.674587
v  -303.846191 474.130249 53.674614
v  -303.846191 394.130249 53.674614
v  0.000000 474.130249 53.674446
v  151.922852 394.130249 53.674515
v  607.692383 474.130249 53.674728
v  607.692383 394.130249 53.674728
v  -759.615723 -474.130249 -53.675014
v  -455.769043 -474.130249 -53.674873
v  455.769531 -474.130249 -53.674370
v  607.692383 -474.130249 -53.674343
v  911.538574 -474.130249 -53.674294
v  -382.289551 -474.130249 -53.674839
v  -381.973633 -348.709259 -53.674839
v  -365.489746 -253.611176 -53.674835
v  -335.314941 -150.399536 -53.674820
v  -272.312988 -57.402924 -53.674774
v  -161.193848 9.276001 -53.674683
v  0.000000 35.553741 -53.674549
v  151.922852 9.275848 -53.674419
v  272.312988 -57.402893 -53.674400
v  335.314941 -150.399506 -53.674389
v  365.489746 -253.611145 -53.674381
v  381.973633 -348.709290 -53.674381
v  382.289551 -474.130249 -53.674385
v  0.000000 474.130249 -53.674583
v  151.922852 474.130249 -53.674538
v  151.922852 394.130249 -53.674538
v  455.769531 394.130249 -53.674442
v  455.769531 474.130249 -53.674442
v  607.692383 474.130249 -53.674393
v  607.692383 394.130249 -53.674393
v  911.538574 394.130249 -53.674297
# 72 vertices

vn 0.000000 1.000000 -0.000000
vn -1.000000 0.000000 -0.000000
vn 1.000000 0.000000 -0.000000
vn 0.000000 0.000000 1.000000
vn 0.000000 0.000001 1.000000
vn 0.000000 0.000000 -1.000000
vn 0.000001 0.000000 -1.000000
vn -0.004838 -0.999988 -0.000000
vn -0.170438 -0.985368 -0.000000
vn 0.160896 -0.986971 -0.000000
vn -0.674714 -0.738079 -0.000000
vn -0.827901 -0.560874 -0.000000
vn -0.484506 -0.874788 -0.000000
vn -0.999997 -0.002519 -0.000000
vn -0.985308 -0.170789 -0.000000
vn -0.959821 -0.280612 -0.000000
vn 0.514538 -0.857468 -0.000000
vn 0.827901 -0.560874 -0.000000
vn 0.959821 -0.280612 -0.000000
vn 0.985308 -0.170789 -0.000000
vn 0.999997 -0.002519 -0.000000
# 21 vertex normals

vt 0.046161 0.673455 0.000000
vt 0.046211 0.647239 0.000000
vt 0.083249 0.647324 0.000000
vt 0.083184 0.673455 0.000000
vt 0.952655 0.648185 0.000000
vt 0.952523 0.674007 0.000000
vt 0.878476 0.674007 0.000000
vt 0.878193 0.647480 0.000000
vt 0.158436 0.674635 0.000000
vt 0.158352 0.648157 0.000000
vt 0.195620 0.648767 0.000000
vt 0.195460 0.674635 0.000000
vt 0.840387 0.646760 0.000000
vt 0.839888 0.672494 0.000000
vt 0.765841 0.672494 0.000000
vt 0.765228 0.645878 0.000000
vt 0.132065 0.628483 0.000000
vt 0.158185 0.628292 0.000000
vt 0.132065 0.647979 0.000000
vt 0.196438 0.629595 0.000000
vt 0.222305 0.631385 0.000000
vt 0.222155 0.648940 0.000000
vt 0.020100 0.628134 0.000000
vt 0.046370 0.627700 0.000000
vt 0.020069 0.647228 0.000000
vt 0.083458 0.627817 0.000000
vt 0.109460 0.628171 0.000000
vt 0.109460 0.647327 0.000000
vt 0.020392 0.627690 0.000000
vt 0.020392 0.416098 0.000000
vt 0.046860 0.416092 0.000000
vt 0.275793 0.678214 0.000000
vt 0.275720 0.651924 0.000000
vt 0.314445 0.652663 0.000000
vt 0.313573 0.678214 0.000000
vt 0.726716 0.644509 0.000000
vt 0.724931 0.670616 0.000000
vt 0.650947 0.667575 0.000000
vt 0.651238 0.641384 0.000000
vt 0.393224 0.678184 0.000000
vt 0.394115 0.652028 0.000000
vt 0.431107 0.653275 0.000000
vt 0.430227 0.679434 0.000000
vt 0.613005 0.639987 0.000000
vt 0.611524 0.666114 0.000000
vt 0.537518 0.663679 0.000000
vt 0.537714 0.637496 0.000000
vt 0.367963 0.633446 0.000000
vt 0.394145 0.632506 0.000000
vt 0.367963 0.652023 0.000000
vt 0.432410 0.633789 0.000000
vt 0.458523 0.635596 0.000000
vt 0.457197 0.655046 0.000000
vt 0.249152 0.632422 0.000000
vt 0.274956 0.632397 0.000000
vt 0.249152 0.651918 0.000000
vt 0.315214 0.632710 0.000000
vt 0.338661 0.633308 0.000000
vt 0.338882 0.652692 0.000000
vt 0.084559 0.416202 0.000000
vt 0.159421 0.416400 0.000000
vt 0.175119 0.415213 0.000000
vt 0.177258 0.445778 0.000000
vt 0.181814 0.469713 0.000000
vt 0.236246 0.538442 0.000000
vt 0.276955 0.545734 0.000000
vt 0.208231 0.520359 0.000000
vt 0.316017 0.539627 0.000000
vt 0.400621 0.420772 0.000000
vt 0.439779 0.422301 0.000000
vt 0.508975 0.636474 0.000000
vt 0.515873 0.424994 0.000000
vt 0.366077 0.499242 0.000000
vt 0.375766 0.473109 0.000000
vt 0.381256 0.449362 0.000000
vt 0.384788 0.418928 0.000000
vt 0.190542 0.496127 0.000000
vt 0.347504 0.522570 0.000000
vt 0.955960 0.436760 0.000000
vt 0.993063 0.437246 0.000000
vt 0.989799 0.648781 0.000000
vt 0.881789 0.435763 0.000000
vt 0.858935 0.489198 0.000000
vt 0.863395 0.466064 0.000000
vt 0.863925 0.435504 0.000000
vt 0.806859 0.552767 0.000000
vt 0.834599 0.536792 0.000000
vt 0.767318 0.558414 0.000000
vt 0.841089 0.666310 0.000000
vt 0.877532 0.666944 0.000000
vt 0.953277 0.668183 0.000000
vt 0.989551 0.668243 0.000000
vt 0.730344 0.550808 0.000000
vt 0.619957 0.428495 0.000000
vt 0.658758 0.429921 0.000000
vt 0.544033 0.425989 0.000000
vt 0.612956 0.659517 0.000000
vt 0.649956 0.660837 0.000000
vt 0.726849 0.664056 0.000000
vt 0.763851 0.665326 0.000000
vt 0.686113 0.509994 0.000000
vt 0.679387 0.484403 0.000000
vt 0.675997 0.461027 0.000000
vt 0.676716 0.430471 0.000000
vt 0.850841 0.514273 0.000000
vt 0.701248 0.533361 0.000000
vt 0.277487 0.520493 0.000000
vt 0.307873 0.515671 0.000000
vt 0.245486 0.514747 0.000000
vt 0.331190 0.502693 0.000000
vt 0.343982 0.485736 0.000000
vt 0.355612 0.444066 0.000000
vt 0.359733 0.414648 0.000000
vt 0.351358 0.464853 0.000000
vt 0.225202 0.501315 0.000000
vt 0.213146 0.483625 0.000000
vt 0.206507 0.462434 0.000000
vt 0.203071 0.441551 0.000000
vt 0.200250 0.412018 0.000000
# 119 texture coords

g Entrada_Muralla
s 2
f -70/-119/-21 -69/-118/-21 -36/-117/-21 -71/-116/-21 
f -67/-115/-21 -35/-114/-21 -34/-113/-21 -68/-112/-21 
f -65/-111/-21 -33/-110/-21 -32/-109/-21 -66/-108/-21 
f -63/-107/-21 -31/-106/-21 -62/-105/-21 -64/-104/-21 
s 1
f -68/-103/-20 -34/-102/-20 -33/-110/-20 -65/-101/-20 
f -31/-100/-19 -63/-99/-19 -66/-98/-19 -32/-109/-19 
f -60/-97/-20 -61/-96/-20 -69/-118/-20 -70/-95/-20 
f -35/-94/-19 -67/-93/-19 -71/-92/-19 -36/-117/-19 
f -61/-96/-20 -60/-91/-20 -72/-90/-20 -37/-89/-20 
s 2
f -8/-88/-21 -30/-87/-21 -59/-86/-21 -7/-85/-21 
f -6/-84/-21 -29/-83/-21 -58/-82/-21 -5/-81/-21 
f -4/-80/-21 -57/-79/-21 -28/-78/-21 -3/-77/-21 
f -2/-76/-21 -27/-75/-21 -56/-74/-21 -1/-73/-21 
s 1
f -5/-72/-20 -58/-71/-20 -57/-79/-20 -4/-70/-20 
f -27/-69/-19 -2/-68/-19 -3/-67/-19 -28/-78/-19 
f -64/-66/-20 -62/-65/-20 -30/-87/-20 -8/-64/-20 
f -29/-63/-19 -6/-62/-19 -7/-61/-19 -59/-86/-19 
s 2
f -61/-96/-18 -37/-89/-18 -55/-60/-18 -35/-94/-18 
f -34/-102/-18 -35/-94/-18 -55/-60/-18 -54/-59/-18 
f -54/-59/-18 -50/-58/-18 -49/-57/-18 -48/-56/-18 
f -45/-55/-18 -44/-54/-18 -62/-65/-18 -46/-53/-18 
f -62/-65/-18 -31/-100/-18 -46/-53/-18 
f -34/-102/-18 -31/-100/-18 -32/-109/-18 -33/-110/-18 
f -61/-96/-18 -35/-94/-18 -36/-117/-18 -69/-118/-18 
f -44/-54/-18 -43/-52/-18 -29/-63/-18 -62/-65/-18 
f -58/-71/-18 -53/-51/-18 -52/-50/-18 -27/-69/-18 
f -56/-49/-18 -27/-69/-18 -52/-50/-18 -51/-48/-18 
f -58/-71/-18 -27/-69/-18 -28/-78/-18 -57/-79/-18 
f -62/-65/-17 -29/-63/-17 -59/-86/-17 -30/-87/-17 
f -41/-47/-18 -40/-46/-18 -53/-51/-18 -58/-71/-18 
f -39/-45/-18 -38/-44/-18 -53/-51/-18 -40/-46/-18 
f -54/-59/-18 -48/-56/-18 -47/-43/-18 -34/-102/-18 
f -34/-102/-18 -47/-43/-18 -46/-53/-18 -31/-100/-18 
f -58/-71/-18 -29/-63/-18 -42/-42/-18 -41/-47/-18 
f -29/-63/-18 -43/-52/-18 -42/-42/-18 
f -26/-41/-16 -72/-40/-16 -60/-39/-16 -67/-115/-16 
f -26/-41/-16 -67/-115/-16 -68/-112/-16 -25/-38/-16 
f -25/-38/-16 -19/-37/-16 -20/-36/-16 -21/-35/-16 
f -16/-34/-16 -17/-33/-16 -63/-107/-16 -64/-104/-16 
f -16/-34/-15 -64/-104/-15 -15/-32/-15 
f -66/-31/-16 -63/-107/-16 -68/-112/-16 -65/-30/-16 
f -71/-29/-16 -67/-115/-16 -60/-39/-16 -70/-28/-16 
f -15/-32/-15 -64/-104/-15 -6/-84/-15 -14/-27/-15 
f -23/-26/-16 -24/-25/-16 -5/-81/-16 -2/-76/-16 
f -23/-26/-16 -2/-76/-16 -1/-73/-16 -22/-24/-16 
f -3/-23/-16 -2/-76/-16 -5/-81/-16 -4/-22/-16 
f -7/-21/-16 -6/-84/-16 -64/-104/-16 -8/-20/-16 
f -12/-19/-16 -5/-81/-16 -24/-25/-16 -11/-18/-16 
f -10/-17/-16 -11/-18/-16 -24/-25/-16 -9/-16/-16 
f -25/-38/-16 -68/-112/-16 -18/-15/-16 -19/-37/-16 
f -68/-112/-16 -63/-107/-16 -17/-33/-16 -18/-15/-16 
f -13/-14/-16 -6/-84/-16 -5/-81/-16 -12/-19/-16 
f -6/-84/-16 -13/-14/-16 -14/-27/-16 
s 1
f -22/-24/-19 -1/-73/-19 -56/-49/-19 -51/-48/-19 
f -15/-13/-14 -14/-12/-13 -43/-52/-13 -44/-54/-14 
f -16/-11/-12 -15/-13/-14 -44/-54/-14 -45/-55/-12 
f -13/-10/-11 -12/-9/-10 -41/-47/-10 -42/-42/-11 
f -14/-12/-9 -13/-10/-11 -42/-42/-11 -43/-52/-9 
f -10/-8/-8 -9/-7/-8 -38/-44/-8 -39/-45/-8 
f -11/-6/-7 -10/-8/-7 -39/-45/-7 -40/-46/-7 
f -12/-9/-6 -11/-6/-6 -40/-46/-6 -41/-47/-6 
f -17/-5/-5 -16/-11/-5 -45/-55/-5 -46/-53/-5 
f -18/-4/-4 -17/-5/-4 -46/-53/-4 -47/-43/-4 
f -19/-3/-3 -18/-4/-3 -47/-43/-3 -48/-56/-3 
f -20/-2/-2 -19/-3/-2 -48/-56/-2 -49/-57/-2 
f -21/-1/-1 -20/-2/-1 -49/-57/-1 -50/-58/-1 
# 62 polygons - 4 triangles

