# 3ds Max Wavefront OBJ Exporter v0.97b - (c)2007 guruware
# File Created: 24.02.2016 17:24:46

#
# object Pared_Muralla
#

v  -303.846436 -474.130249 53.674591
v  -455.769287 -474.130249 53.674591
v  -455.769287 -474.130249 -53.674583
v  -303.846436 -474.130249 -53.674583
v  0.000244 -474.130249 -53.674587
v  0.000244 -474.130249 53.674587
v  151.923096 -474.130249 53.674583
v  151.923096 -474.130249 -53.674591
v  455.769287 -474.130249 -53.674595
v  455.769287 -474.130249 53.674580
v  -303.846436 474.130249 -53.674583
v  -455.769287 474.130249 -53.674583
v  -455.769287 474.130249 53.674591
v  -303.846436 474.130249 53.674591
v  0.000244 394.130249 -53.674587
v  -303.846436 394.130249 -53.674583
v  -303.846436 394.130249 53.674591
v  0.000244 394.130249 53.674587
v  151.923096 474.130249 -53.674591
v  0.000244 474.130249 -53.674587
v  0.000244 474.130249 53.674587
v  151.923096 474.130249 53.674583
v  455.769287 394.130249 -53.674595
v  151.923096 394.130249 -53.674591
v  151.923096 394.130249 53.674583
v  455.769287 394.130249 53.674580
v  -455.769287 394.130249 53.674591
v  -455.769287 394.130249 -53.674583
# 28 vertices

vn 0.000000 1.000000 -0.000000
vn 0.000000 0.000000 1.000000
vn 0.000000 0.000000 -1.000000
vn -0.000000 0.000000 -1.000000
vn -1.000000 0.000000 -0.000000
vn 1.000000 0.000000 -0.000000
# 6 vertex normals

vt 0.947833 0.953795 0.000000
vt 0.947642 0.982928 0.000000
vt 0.906411 0.982658 0.000000
vt 0.906602 0.953523 0.000000
vt 0.464942 0.957612 0.000000
vt 0.465175 0.928479 0.000000
vt 0.547647 0.929150 0.000000
vt 0.547404 0.958286 0.000000
vt 0.824098 0.952949 0.000000
vt 0.823890 0.982082 0.000000
vt 0.782659 0.981788 0.000000
vt 0.782867 0.952654 0.000000
vt 0.588672 0.958608 0.000000
vt 0.588892 0.929475 0.000000
vt 0.671367 0.930115 0.000000
vt 0.671133 0.959250 0.000000
vt 0.423941 0.928142 0.000000
vt 0.425863 0.692504 0.000000
vt 0.467088 0.692842 0.000000
vt 0.549531 0.693509 0.000000
vt 0.590733 0.693838 0.000000
vt 0.673169 0.694473 0.000000
vt 0.949590 0.696446 0.000000
vt 0.947977 0.932087 0.000000
vt 0.906743 0.931809 0.000000
vt 0.908363 0.696166 0.000000
vt 0.824260 0.931238 0.000000
vt 0.825919 0.695595 0.000000
vt 0.783016 0.930941 0.000000
vt 0.784715 0.695301 0.000000
vt 0.700524 0.930337 0.000000
vt 0.702281 0.694696 0.000000
vt 0.588118 0.951187 0.000000
vt 0.548058 0.950861 0.000000
vt 0.853394 0.932275 0.000000
vt 0.853232 0.953167 0.000000
vt 0.753881 0.931565 0.000000
vt 0.753734 0.952457 0.000000
vt 0.977110 0.932276 0.000000
vt 0.976968 0.953987 0.000000
vt 0.877609 0.932441 0.000000
vt 0.877467 0.953333 0.000000
vt 0.464399 0.950191 0.000000
vt 0.424339 0.949854 0.000000
vt 0.977111 0.932286 0.000000
vt 0.978723 0.696644 0.000000
# 46 texture coords

g Pared_Muralla
s 4
f -17/-46/-6 -16/-45/-6 -15/-44/-6 -18/-43/-6 
f -13/-42/-6 -12/-41/-6 -11/-40/-6 -14/-39/-6 
f -9/-38/-6 -8/-37/-6 -7/-36/-6 -10/-35/-6 
f -5/-34/-6 -4/-33/-6 -3/-32/-6 -6/-31/-6 
s 1
f -2/-30/-5 -27/-29/-5 -28/-28/-5 -12/-41/-5 
f -11/-40/-5 -12/-41/-5 -28/-28/-5 -23/-27/-5 
f -11/-40/-5 -23/-27/-5 -22/-26/-5 -4/-33/-5 
f -3/-32/-5 -4/-33/-5 -22/-26/-5 -19/-25/-5 
f -26/-24/-4 -1/-23/-4 -13/-22/-3 -25/-21/-3 
f -14/-20/-3 -24/-19/-3 -25/-21/-3 -13/-22/-3 
f -24/-19/-3 -14/-20/-3 -5/-18/-3 -21/-17/-3 
f -6/-16/-3 -20/-15/-3 -21/-17/-3 -5/-18/-3 
f -11/-40/-5 -4/-33/-5 -7/-14/-5 -8/-13/-5 
s 2
f -14/-20/-2 -11/-12/-2 -8/-11/-2 -9/-38/-2 
s 1
f -5/-18/-3 -14/-20/-3 -9/-38/-3 -10/-35/-3 
s 2
f -4/-10/-1 -5/-18/-1 -10/-35/-1 -7/-9/-1 
f -1/-23/-2 -2/-8/-2 -16/-7/-2 -17/-46/-2 
s 1
f -13/-22/-3 -1/-23/-4 -17/-46/-4 -18/-43/-4 
s 2
f -12/-6/-1 -13/-22/-1 -18/-43/-1 -15/-5/-1 
s 1
f -2/-30/-5 -12/-41/-5 -15/-4/-5 -16/-3/-5 
s 2
f -2/-2/-2 -1/-23/-2 -26/-24/-2 -27/-1/-2 
f -20/-15/-1 -6/-16/-1 -3/-32/-1 -19/-25/-1 
# 22 polygons

